{
  "images" : [
    {
      "idiom" : "universal",
      "filename" : "sort_22x22.png",
      "scale" : "1x"
    },
    {
      "idiom" : "universal",
      "filename" : "sort_44x44.png",
      "scale" : "2x"
    },
    {
      "idiom" : "universal",
      "filename" : "sort_66x66.png",
      "scale" : "3x"
    }
  ],
  "info" : {
    "version" : 1,
    "author" : "xcode"
  }
}